[
  {
    "name": "CARDIO",
    "code": "CAR",
    "active": true,
    "id": "5941d12e54030e3b19ab4ab7"
  },
  {
    "name": "DIABETES",
    "code": "DIA",
    "active": true,
    "id": "5941d12e54030e3b19ab4ab8"
  },
  {
    "name": "GASTROPEDIATRIA",
    "code": "GAS",
    "active": true,
    "id": "5941d12e54030e3b19ab4ab9"
  },
  {
    "name": "INSTITUCIONAL",
    "code": "INS",
    "active": true,
    "id": "5941d12e54030e3b19ab4aba"
  },
  {
    "name": "KAM SAN-GEN",
    "code": "KAM",
    "active": true,
    "id": "5941d12e54030e3b19ab4abb"
  },
  {
    "name": "KIM",
    "code": "KIM",
    "active": true,
    "id": "5941d12e54030e3b19ab4abc"
  },
  {
    "name": "MOVILIDAD",
    "code": "MOV",
    "active": true,
    "id": "5941d12e54030e3b19ab4abd"
  },
  {
    "name": "MULTILINEA",
    "code": "MUL",
    "active": true,
    "id": "5941d12e54030e3b19ab4abe"
  },
  {
    "name": "GENERICOS",
    "code": "GEN",
    "active": true,
    "id": "5941d12e54030e3b19ab4abf"
  },
  {
    "name": "MSA",
    "code": "MSA",
    "active": true,
    "id": "5941d12e54030e3b19ab4ac0"
  },
  {
    "name": "RESPI GASTRO",
    "code": "REG",
    "active": true,
    "id": "5941d12e54030e3b19ab4ac1"
  },
  {
    "name": "INTERNAL MEDICINE",
    "code": "IMD",
    "active": true,
    "id": "5941d12e54030e3b19ab4ac2"
  },
  {
    "name": "FARMACIAS",
    "code": "FAR",
    "active": true,
    "id": "5941d12e54030e3b19ab4ac3"
  },
  {
    "name": "GENERAL PHYSICIAN",
    "code": "GPS",
    "active": true,
    "id": "5941d12e54030e3b19ab4ac4"
  },
  {
    "name": "PEDIATRIA",
    "code": "PED",
    "active": true,
    "id": "5941d12e54030e3b19ab4ac5"
  },
  {
    "name": "CENTRALES",
    "code": "CEN",
    "active": true,
    "id": "5941d12e54030e3b19ab4ac6"
  },
  {
    "name": "KAM ONCO",
    "code": "KOR",
    "active": true,
    "id": "5941d12e54030e3b19ab4ac7"
  },
  {
    "name": "VENDEDORES",
    "code": "VEN",
    "active": true,
    "id": "5941d12e54030e3b19ab4ac8"
  },
  {
    "name": "CARDIO",
    "code": "CAR",
    "active": true,
    "id": "5941d2b3b403bf3c05395123"
  },
  {
    "name": "DIABETES",
    "code": "DIA",
    "active": true,
    "id": "5941d2b3b403bf3c05395124"
  },
  {
    "name": "GASTROPEDIATRIA",
    "code": "GAS",
    "active": true,
    "id": "5941d2b3b403bf3c05395125"
  },
  {
    "name": "INSTITUCIONAL",
    "code": "INS",
    "active": true,
    "id": "5941d2b3b403bf3c05395126"
  },
  {
    "name": "KAM SAN-GEN",
    "code": "KAM",
    "active": true,
    "id": "5941d2b3b403bf3c05395127"
  },
  {
    "name": "KIM",
    "code": "KIM",
    "active": true,
    "id": "5941d2b3b403bf3c05395128"
  },
  {
    "name": "MOVILIDAD",
    "code": "MOV",
    "active": true,
    "id": "5941d2b3b403bf3c05395129"
  },
  {
    "name": "MULTILINEA",
    "code": "MUL",
    "active": true,
    "id": "5941d2b3b403bf3c0539512a"
  },
  {
    "name": "GENERICOS",
    "code": "GEN",
    "active": true,
    "id": "5941d2b3b403bf3c0539512b"
  },
  {
    "name": "MSA",
    "code": "MSA",
    "active": true,
    "id": "5941d2b3b403bf3c0539512c"
  },
  {
    "name": "RESPI GASTRO",
    "code": "REG",
    "active": true,
    "id": "5941d2b3b403bf3c0539512d"
  },
  {
    "name": "INTERNAL MEDICINE",
    "code": "IMD",
    "active": true,
    "id": "5941d2b3b403bf3c0539512e"
  },
  {
    "name": "FARMACIAS",
    "code": "FAR",
    "active": true,
    "id": "5941d2b3b403bf3c0539512f"
  },
  {
    "name": "GENERAL PHYSICIAN",
    "code": "GPS",
    "active": true,
    "id": "5941d2b3b403bf3c05395130"
  },
  {
    "name": "PEDIATRIA",
    "code": "PED",
    "active": true,
    "id": "5941d2b3b403bf3c05395131"
  },
  {
    "name": "CENTRALES",
    "code": "CEN",
    "active": true,
    "id": "5941d2b3b403bf3c05395132"
  },
  {
    "name": "KAM ONCO",
    "code": "KOR",
    "active": true,
    "id": "5941d2b3b403bf3c05395133"
  },
  {
    "name": "VENDEDORES",
    "code": "VEN",
    "active": true,
    "id": "5941d2b3b403bf3c05395134"
  }
]