{
  "apps": [
    {
      "name": "champtrack",
      "script": "/root/champtrack-fullstack/server/server.js",
      "cwd": "/root/champtrack-fullstack",
      "log_file": "combined.outerr.log",
      "out_file": "out.log",
      "error_file": "err.log",
      "env": {
        "NODE_ENV": "staging"
      }
    }
  ]
}
