{
  "name": "AppRole",
  "plural": "roles",
  "base": "Role",
  "idInjection": true,
  "options": {
    "validateUpsert": true
  },
  "properties": {
    "active": {
      "type": "boolean",
      "default": true
    }
  },
  "validations": [],
  "relations": {
    "principals": {
      "type": "hasMany",
      "model": "AppRoleMapping",
      "foreignKey": "roleId"
    },
    "users": {
      "type": "hasMany",
      "model": "AppUser",
      "foreignKey": "roleId",
      "through": "AppRoleMapping",
      "keyThrough": "principalId"
    },
    "rankings": {
      "type": "hasMany",
      "model": "Ranking",
      "foreignKey": "roleId",
      "through": "AppRoleRanking",
      "keyThrough": "rankingId"
    }
  },
  "acls": [
    {
      "accessType": "*",
      "principalType": "ROLE",
      "principalId": "Administrator",
      "permission": "ALLOW"
    }
  ],
  "methods": {}
}
