{
  "name": "AppUser",
  "plural": "users",
  "base": "User",
  "idInjection": true,
  "options": {
    "validateUpsert": true
  },
  "properties": {
    "displayName": {
      "type": "string",
      "required": true,
      "default": "Unnamed User"
    },
    "password": {
      "type": "string",
      "required": false
    },
    "businessUnitId": {
      "type": "string"
    },
    "lineId": {
      "type": "string"
    },
    "countryId": {
      "type": "string"
    },
    "rankingId": {
      "type": "string"
    },
    "photoURL": {
      "type": "string"
    },
    "territory": {
      "type": "string"
    },
    "unreadPostCount": {
      "type": "number",
      "default": 0
    },
    "unreadSurveyCount": {
      "type": "number",
      "default": 0
    },
    "unreadMessageCount": {
      "type": "number",
      "default": 0
    },
    "active": {
      "type": "boolean",
      "default": true
    }
  },
  "validations": [],
  "relations": {
    "businessUnit": {
      "type": "belongsTo",
      "model": "BusinessUnit",
      "foreignKey": "businessUnitId"
    },
    "line": {
      "type": "belongsTo",
      "model": "Line",
      "foreignKey": "lineId"
    },
    "country": {
      "type": "belongsTo",
      "model": "Country",
      "foreignKey": "countryId"
    },
    "ranking": {
      "type": "belongsTo",
      "model": "Ranking",
      "foreignKey": "rankingId"
    },
    "roles": {
      "type": "hasMany",
      "model": "AppRole",
      "foreignKey": "principalId",
      "through": "AppRoleMapping",
      "keyThrough": "roleId"
    }
  },
  "acls": [
    {
      "accessType": "READ",
      "principalType": "ROLE",
      "principalId": "$authenticated",
      "permission": "ALLOW"
    },
    {
      "accessType": "WRITE",
      "principalType": "ROLE",
      "principalId": "$authenticated",
      "permission": "ALLOW"
    },
    {
      "accessType": "EXECUTE",
      "principalType": "ROLE",
      "principalId": "$authenticated",
      "permission": "ALLOW"
    },
    {
      "accessType": "*",
      "principalType": "ROLE",
      "principalId": "$owner",
      "permission": "ALLOW"
    },
    {
      "accessType": "*",
      "principalType": "ROLE",
      "principalId": "Administrator",
      "permission": "ALLOW"
    }
  ],
  "methods": {
    "assignRoles": {
      "accepts": [
        {
          "arg": "user",
          "type": "object",
          "required": true
        },
        {
          "arg": "roles",
          "type": "array",
          "required": true,
          "description": "List of roles the user will end up having (removes not included)"
        }
      ],
      "returns": [
        {
          "arg": "updatedUser",
          "type": "object",
          "root": true,
          "description": "User updated with added/removed roles"
        }
      ],
      "description": "Assign or removes roles to user",
      "http": [
        {
          "path": "/assignRoles",
          "verb": "post"
        }
      ]
    },
    "prototype.clearUnreadNotifications": {
      "accepts": [
        {
          "arg": "notificationType",
          "type": "string",
          "required": true,
          "description": "Notification type. Example: 'Post', 'Message', 'Survey'"
        }
      ],
      "returns": [
        {
          "arg": "updatedUser",
          "type": "object",
          "root": true,
          "description": "Updated user"
        }
      ],
      "description": "Clear unread notifications",
      "http": [
        {
          "path": "/clearUnreadNotifications",
          "verb": "post"
        }
      ]
    }
  }
}
