{
  "name": "BusinessUnit",
  "plural": "businessunits",
  "base": "PersistedModel",
  "idInjection": true,
  "options": {
    "validateUpsert": true
  },
  "properties": {
    "name": {
      "type": "string",
      "required": true
    },
    "active": {
      "type": "boolean",
      "default": true
    }
  },
  "validations": [],
  "relations": {
    "users": {
      "type": "hasMany",
      "model": "AppUser",
      "foreignKey": "businessUnitId"
    },
    "lines": {
      "type": "hasMany",
      "model": "Line",
      "foreignKey": "businessUnitId"
    }
  },
  "acls": [
    {
      "accessType": "*",
      "principalType": "ROLE",
      "principalId": "Administrator",
      "permission": "ALLOW"
    }
  ],
  "methods": {
    "safeDelete": {
      "accepts": [
        {
          "arg": "id",
          "type": "string",
          "required": true,
          "description": ""
        }
      ],
      "returns": [
        {
          "arg": "count",
          "type": "number",
          "root": false,
          "description": ""
        }
      ],
      "description": "",
      "http": [
        {
          "path": "/safeDelete",
          "verb": "delete"
        }
      ]
    }
  }
}
