{
  "name": "Line",
  "plural": "lines",
  "base": "PersistedModel",
  "idInjection": true,
  "options": {
    "validateUpsert": true
  },
  "properties": {
    "name": {
      "type": "string",
      "required": true
    },
    "businessUnitId": {
      "type": "string",
      "required": true
    },
    "active": {
      "type": "boolean",
      "default": true
    }
  },
  "validations": [],
  "relations": {
    "businessUnit": {
      "type": "belongsTo",
      "model": "BusinessUnit",
      "foreignKey": "businessUnitId"
    }
  },
  "acls": [
    {
      "accessType": "*",
      "principalType": "ROLE",
      "principalId": "Administrator",
      "permission": "ALLOW"
    }
  ],
  "methods": {}
}
