{
  "name": "Period",
  "plural": "periods",
  "base": "PersistedModel",
  "idInjection": true,
  "options": {
    "validateUpsert": true
  },
  "properties": {
    "name": {
      "type": "string",
      "required": true
    },
    "rankingId": {
      "type": "string",
      "required": true
    },
    "startDate": {
      "type": "date",
      "required": true
    },
    "endDate": {
      "type": "date",
      "required": true
    },
    "active": {
      "type": "boolean",
      "default": true
    }
  },
  "validations": [],
  "relations": {
    "ranking": {
      "type": "hasOne",
      "model": "Ranking",
      "foreignKey": "rankingId"
    },
    "records": {
      "type": "hasMany",
      "model": "Record",
      "foreignKey": "periodId"
    }
  },
  "acls": [
    {
      "accessType": "*",
      "principalType": "ROLE",
      "principalId": "Administrator",
      "permission": "ALLOW"
    }
  ],
  "methods": {}
}
