{
  "name": "PostLike",
  "plural": "postlikes",
  "base": "PersistedModel",
  "idInjection": true,
  "options": {
    "validateUpsert": true
  },
  "properties": {
    "postId": {
      "type": "string",
      "required": true
    },
    "userId": {
      "type": "string",
      "required": true
    },
    "createdDate": {
      "type": "date"
    }
  },
  "validations": [],
  "relations": {
    "post": {
      "type": "belongsTo",
      "model": "Post",
      "foreignKey": "postId"
    },
    "user": {
      "type": "belongsTo",
      "model": "AppUser",
      "foreignKey": "userId"
    }
  },
  "acls": [
    {
      "accessType": "*",
      "principalType": "ROLE",
      "principalId": "Administrator",
      "permission": "ALLOW"
    }
  ],
  "methods": {}
}
