{
  "name": "Ranking",
  "plural": "rankings",
  "base": "PersistedModel",
  "idInjection": true,
  "options": {
    "validateUpsert": true
  },
  "properties": {
    "name": {
      "type": "string",
      "required": true
    },
    "photoURL": {
      "type": "string"
    },
    "showTitle": {
      "type": "boolean",
      "default": true
    },
    "active": {
      "type": "boolean",
      "default": true
    }
  },
  "validations": [],
  "relations": {
    "users": {
      "type": "hasMany",
      "model": "AppUser",
      "foreignKey": "rankingId"
    },
    "variables": {
      "type": "hasMany",
      "model": "Variable",
      "foreignKey": "rankingId"
    },
    "periods": {
      "type": "hasMany",
      "model": "Period",
      "foreignKey": "rankingId"
    }
  },
  "acls": [
    {
      "accessType": "*",
      "principalType": "ROLE",
      "principalId": "Administrator",
      "permission": "ALLOW"
    }
  ],
  "methods": {
    "accumulatedRecords": {
      "accepts": [
        {
          "arg": "rankingId",
          "type": "string",
          "required": true,
          "description": "Ranking ID"
        },
        {
          "arg": "year",
          "type": "number",
          "required": false,
          "description": "Allows to get accumulated records per year"
        }
      ],
      "returns": [
        {
          "arg": "accumulatedRecords",
          "type": "array",
          "root": true,
          "description": "Accumulated records"
        }
      ],
      "description": "Get accumulated records per user for specific Ranking ",
      "http": [
        {
          "path": "/accumulatedRecords",
          "verb": "get"
        }
      ]
    },
    "exportToExcel": {
      "accepts": [
        {
          "arg": "recordsList",
          "type": "array",
          "required": true,
          "description": ""
        },
        {
          "arg": "req",
          "type": "object",
          "http": {
            "source": "req"
          }
        },
        {
          "arg": "res",
          "type": "object",
          "http": {
            "source": "res"
          }
        }
      ],
      "returns": [
        {
          "arg": "downloadUrl",
          "type": "string",
          "root": true,
          "description": "Excel file"
        }
      ],
      "description": "",
      "http": [
        {
          "path": "/exportToExcel",
          "verb": "post"
        }
      ]
    },
    "bulkAssignParticipants": {
      "accepts": [
        {
          "arg": "rankingId",
          "type": "string",
          "required": true,
          "description": ""
        },
        {
          "arg": "users",
          "type": "array",
          "required": true,
          "description": ""
        }
      ],
      "returns": [
        {
          "arg": "updatedRanking",
          "type": "object",
          "root": true,
          "description": ""
        }
      ],
      "description": "",
      "http": [
        {
          "path": "/bulkAssignParticipants",
          "verb": "post"
        }
      ]
    }
  }
}
