{
  "name": "SurveyAnswer",
  "plural": "surveyanswers",
  "base": "PersistedModel",
  "idInjection": true,
  "options": {
    "validateUpsert": true
  },
  "properties": {
    "surveyId": {
      "type": "string",
      "required": true
    },
    "surveyOptionId": {
      "type": "string",
      "required": true
    },
    "userId": {
      "type": "string",
      "required": true
    },
    "createdDate": {
      "type": "date",
      "required": true
    },
    "active": {
      "type": "boolean",
      "default": true
    }
  },
  "validations": [],
  "relations": {
    "survey": {
      "type": "belongsTo",
      "model": "Survey",
      "foreignKey": "surveyId"
    },
    "option": {
      "type": "belongsTo",
      "model": "SurveyOption",
      "foreignKey": "surveyOptionId"
    },
    "user": {
      "type": "belongsTo",
      "model": "AppUser",
      "foreignKey": "userId"
    }
  },
  "acls": [
    {
      "accessType": "*",
      "principalType": "ROLE",
      "principalId": "Administrator",
      "permission": "ALLOW"
    }
  ],
  "methods": {}
}
