{
  "name": "Survey",
  "plural": "surveys",
  "base": "PersistedModel",
  "idInjection": true,
  "options": {
    "validateUpsert": true
  },
  "properties": {
    "question": {
      "type": "string",
      "required": true
    },
    "hasCorrectOption": {
      "type": "boolean",
      "default": false
    },
    "startDate": {
      "type": "date",
      "required": true
    },
    "endDate": {
      "type": "date",
      "required": true
    },
    "active": {
      "type": "boolean",
      "required": true,
      "default": true
    }
  },
  "validations": [],
  "relations": {
    "options": {
      "type": "hasMany",
      "model": "SurveyOption",
      "foreignKey": "surveyId"
    },
    "answers": {
      "type": "hasMany",
      "model": "SurveyAnswer",
      "foreignKey": "surveyId"
    }
  },
  "acls": [
    {
      "accessType": "*",
      "principalType": "ROLE",
      "principalId": "Administrator",
      "permission": "ALLOW"
    }
  ],
  "methods": {
    "hideSurvey": {
      "accepts": [
        {
          "arg": "surveyId",
          "type": "string",
          "required": true,
          "description": ""
        }
      ],
      "returns": [
        {
          "arg": "survey",
          "type": "object",
          "root": true,
          "description": ""
        }
      ],
      "description": "",
      "http": [
        {
          "path": "/hideSurvey",
          "verb": "post"
        }
      ]
    }
  }
}
