{
  "name": "Variable",
  "plural": "variables",
  "base": "PersistedModel",
  "idInjection": true,
  "options": {
    "validateUpsert": true
  },
  "properties": {
    "name": {
      "type": "string",
      "required": true
    },
    "rankingId": {
      "type": "string",
      "required": true
    },
    "weight": {
      "type": "number",
      "required": true
    },
    "active": {
      "type": "boolean",
      "default": true
    }
  },
  "validations": [],
  "relations": {
    "ranking": {
      "type": "belongsTo",
      "model": "Ranking",
      "foreignKey": "rankingId"
    },
    "records": {
      "type": "hasMany",
      "model": "Record",
      "foreignKey": "variableId",
      "through": "RecordData"
    }
  },
  "acls": [
    {
      "accessType": "*",
      "principalType": "ROLE",
      "principalId": "Administrator",
      "permission": "ALLOW"
    }
  ],
  "methods": {}
}
