{
  "db": {
    "name": "db",
    "connector": "memory"
  },
  "mongodb": {
    "host": "",
    "port": 0,
    "url": "mongodb://champtracksystem:champtrack1234@ds121311.mlab.com:21311/champtrack-dev",
    "database": "",
    "password": "",
    "name": "mongodb",
    "user": "",
    "connector": "mongodb"
  },
  "storage": {
    "name": "storage",
    "connector": "loopback-component-storage",
    "provider": "filesystem",
    "root": "./server/uploads"
  },
  "email": {
    "name": "email",
    "connector": "mail",
    "transports": [
      {
        "type": "SMTP",
        "host": "smtp.gmail.com",
        "secure": true,
        "port": 465,
        "auth": {
          "user": "champtracksystem@gmail.com",
          "pass": "champtrack1234"
        }
      }
    ]
  }
}
